21:55:08 **** Incremental Build of configuration Release for project ps_app ****
make all 
make --no-print-directory pre-build
a9-linaro-pre-build-step
' '
make --no-print-directory main-build
make[1]: Nothing to be done for 'main-build'.

21:55:09 Build Finished (took 803ms)

